…
mtcars_exposed %>% get_exposure()
#>   Exposure
#> 
#> Packs info:
#> # A tibble: 5 x 4
#>   name            type       fun              remove_obeyers
#>   <chr>           <chr>      <list>           <lgl>         
#> 1 dims            data_pack  <S3: data_pack>  T             
#> 2 vs_am_num       group_pack <S3: group_pack> T             
#> 3 enough_col_sum  col_pack   <S3: col_pack>   T             
#> 4 enough_row_sum  row_pack   <S3: row_pack>   T             
#> 5 dbl_not_outlier cell_pack  <S3: cell_pack>  T             
#> 
#> Tidy data validation report:
#> # A tibble: 117 x 5
#>   pack            rule       var      id value
#>   <chr>           <chr>      <chr> <int> <lgl>
#> 1 dims            nrow_high  .all      0 F    
#> 2 dims            ncol_low   .all      0 F    
#> 3 vs_am_num       vs_am_low  0.1       0 F    
#> 4 enough_col_sum  is_enough  am        0 F    
#> 5 enough_row_sum  is_enough  .all     19 F    
#> 6 dbl_not_outlier is_not_out mpg      15 F    
#> # ... with 111 more rows

# Assert any breaker
invisible(mtcars_exposed %>% assert_any_breaker())
#>   Breakers report
#> # A tibble: 117 x 5
#>   pack            rule       var      id value
#>   <chr>           <chr>      <chr> <int> <lgl>
#> 1 dims            nrow_high  .all      0 F    
#> 2 dims            ncol_low   .all      0 F    
#> 3 vs_am_num       vs_am_low  0.1       0 F    
#> 4 enough_col_sum  is_enough  am        0 F    
#> 5 enough_row_sum  is_enough  .all     19 F    
#> 6 dbl_not_outlier is_not_out mpg      15 F    
#> # ... with 111 more rows
…
mtcars %>%
  expose(my_data_packs, my_group_packs, .remove_obeyers = FALSE) %>%
  get_exposure()
#>   Exposure
#> 
#> Packs info:
#> # A tibble: 3 x 4
#>   name          type       fun              remove_obeyers
#>   <chr>         <chr>      <list>           <lgl>         
#> 1 data_dims     data_pack  <S3: data_pack>  F             
#> 2 vs_1          data_pack  <S3: data_pack>  F             
#> 3 group_pack..1 group_pack <S3: group_pack> F             
#> 
#> Tidy data validation report:
#> # A tibble: 8 x 5
#>   pack          rule      var      id value
#>   <chr>         <chr>     <chr> <int> <lgl>
#> 1 data_dims     ncol      .all      0 F    
#> 2 data_dims     nrow      .all      0 T    
#> 3 vs_1          nrow_low  .all      0 T    
#> 4 vs_1          nrow_high .all      0 T    
#> 5 group_pack..1 any_cyl_6 0.0       0 F    
#> 6 group_pack..1 any_cyl_6 0.1       0 T    
#> # ... with 2 more rows
```
…
