Tidy Data Validation Reports • ruler
…
mtcars_exposed %>% get_exposure()
#>   Exposure
#> 
#> Packs info:
#> # A tibble: 5 × 4
#>   name            type       fun        remove_obeyers
#>   <chr>           <chr>      <list>     <lgl>         
#> 1 dims            data_pack  <data_pck> TRUE          
#> 2 vs_am_num       group_pack <grop_pck> TRUE          
#> 3 enough_col_sum  col_pack   <col_pack> TRUE          
#> 4 enough_row_sum  row_pack   <row_pack> TRUE          
#> 5 dbl_not_outlier cell_pack  <cell_pck> TRUE          
#> 
#> Tidy data validation report:
#> # A tibble: 117 × 5
#>   pack            rule       var      id value
#>   <chr>           <chr>      <chr> <int> <lgl>
#> 1 dims            nrow_high  .all      0 FALSE
#> 2 dims            ncol_low   .all      0 FALSE
#> 3 vs_am_num       vs_am_low  0.1       0 FALSE
#> 4 enough_col_sum  is_enough  am        0 FALSE
#> 5 enough_row_sum  is_enough  .all     19 FALSE
#> 6 dbl_not_outlier is_not_out mpg      15 FALSE
#> # ℹ 111 more rows

# Assert any breaker
invisible(mtcars_exposed %>% assert_any_breaker())
#>   Breakers report
#> Tidy data validation report:
#> # A tibble: 117 × 5
#>   pack            rule       var      id value
#>   <chr>           <chr>      <chr> <int> <lgl>
#> 1 dims            nrow_high  .all      0 FALSE
#> 2 dims            ncol_low   .all      0 FALSE
#> 3 vs_am_num       vs_am_low  0.1       0 FALSE
#> 4 enough_col_sum  is_enough  am        0 FALSE
#> 5 enough_row_sum  is_enough  .all     19 FALSE
#> 6 dbl_not_outlier is_not_out mpg      15 FALSE
#> # ℹ 111 more rows
…
mtcars %>%
  expose(my_data_packs, my_group_packs, .remove_obeyers = FALSE) %>%
  get_exposure()
#>   Exposure
#> 
#> Packs info:
#> # A tibble: 3 × 4
#>   name          type       fun        remove_obeyers
#>   <chr>         <chr>      <list>     <lgl>         
#> 1 data_dims     data_pack  <data_pck> FALSE         
#> 2 vs_1          data_pack  <data_pck> FALSE         
#> 3 group_pack__1 group_pack <grop_pck> FALSE         
#> 
#> Tidy data validation report:
#> # A tibble: 8 × 5
#>   pack          rule      var      id value
#>   <chr>         <chr>     <chr> <int> <lgl>
#> 1 data_dims     ncol      .all      0 FALSE
#> 2 data_dims     nrow      .all      0 TRUE 
#> 3 vs_1          nrow_low  .all      0 TRUE 
#> 4 vs_1          nrow_high .all      0 TRUE 
#> 5 group_pack__1 any_cyl_6 0.0       0 FALSE
#> 6 group_pack__1 any_cyl_6 0.1       0 TRUE 
#> # ℹ 2 more rows
…
