Expose data to rule packs — expose • ruler
…
# Only column 'am' is guessed as grouping which defines non-unique levels.
if (FALSE) {
mtcars %>%
  expose(group_rule_pack, .remove_obeyers = FALSE, .guess = TRUE) %>%
  get_report()
}

# Values in `var` should contain combination of three grouping columns but
# column 'vs_one' is guessed as rule. No error is thrown because the guessed
# grouping column define unique levels.
mtcars %>%
  expose(group_rule_pack_dummy, .remove_obeyers = FALSE, .guess = TRUE) %>%
  get_report()
#> Tidy data validation report:
#> # A tibble: 64 × 5
#>    pack          rule   var           id value
#>    <chr>         <chr>  <chr>      <int> <lgl>
#>  1 group_pack__1 vs_one 10.4.5.25      0 FALSE
#>  2 group_pack__1 vs_one 10.4.5.424     0 FALSE
#>  3 group_pack__1 vs_one 13.3.3.84      0 FALSE
#>  4 group_pack__1 vs_one 14.3.3.57      0 FALSE
#>  5 group_pack__1 vs_one 14.7.5.345     0 FALSE
#>  6 group_pack__1 vs_one 15.3.57        0 FALSE
#>  7 group_pack__1 vs_one 15.2.3.435     0 FALSE
#>  8 group_pack__1 vs_one 15.2.3.78      0 FALSE
#>  9 group_pack__1 vs_one 15.5.3.52      0 FALSE
#> 10 group_pack__1 vs_one 15.8.3.17      0 FALSE
#> # ℹ 54 more rows
…
